<svg width="72" height="72" viewBox="0 0 72 72" fill="none" xmlns="http://www.w3.org/2000/svg">
<path d="M48.6562 33.1875C49.4328 33.1875 50.0625 32.5578 50.0625 31.7812V27.5625C50.0625 26.786 49.4328 26.1562 48.6562 26.1562H31.7812C31.0047 26.1562 30.375 26.786 30.375 27.5625V61.3125C30.375 62.089 31.0047 62.7188 31.7812 62.7188H48.6562C49.4328 62.7188 50.0625 62.089 50.0625 61.3125C50.0625 60.536 49.4328 59.9062 48.6562 59.9062H33.1875V54.2812H40.2188C40.9953 54.2812 41.625 53.6515 41.625 52.875C41.625 52.0985 40.9953 51.4688 40.2188 51.4688H33.1875V45.8438H47.25V52.875C47.25 53.6515 47.8797 54.2812 48.6562 54.2812C49.4328 54.2812 50.0625 53.6515 50.0625 52.875V40.2188C50.0625 39.4422 49.4328 38.8125 48.6562 38.8125C47.8797 38.8125 47.25 39.4422 47.25 40.2188V43.0312H33.1875V28.9688H38.8125V36C38.8125 36.7765 39.4422 37.4062 40.2188 37.4062C40.9953 37.4062 41.625 36.7765 41.625 36V28.9688H47.25V31.7812C47.25 32.5578 47.8797 33.1875 48.6562 33.1875Z" fill="#E1BA84"/>
<path d="M41.625 72C42.4017 72 43.0312 71.3704 43.0312 70.5938C43.0312 69.8171 42.4017 69.1875 41.625 69.1875C40.8483 69.1875 40.2188 69.8171 40.2188 70.5938C40.2188 71.3704 40.8483 72 41.625 72Z" fill="#E1BA84"/>
<path d="M64.2656 9.28125C60.0009 9.28125 56.5312 12.7509 56.5312 17.0156V17.7188H23.9062V11.9531C23.9062 5.36217 18.5441 0 11.9531 0C5.36217 0 0 5.36217 0 11.9531V60.0469C0 66.6378 5.36217 72 11.9531 72H35.2967C36.0733 72 36.703 71.3703 36.703 70.5938C36.703 69.8172 36.0733 69.1875 35.2967 69.1875H19.6394C22.3145 66.9407 23.9062 63.6404 23.9062 60.0469V20.5312H56.5312V64.2656C56.5312 65.0422 57.161 65.6719 57.9375 65.6719C58.714 65.6719 59.3438 65.0422 59.3438 64.2656C59.3438 61.5517 61.5517 59.3438 64.2656 59.3438C66.9795 59.3438 69.1875 61.5517 69.1875 64.2656C69.1875 66.9795 66.9795 69.1875 64.2656 69.1875H47.9533C47.1767 69.1875 46.547 69.8172 46.547 70.5938C46.547 71.3703 47.1767 72 47.9533 72H64.2656C68.5304 72 72 68.5304 72 64.2656V17.0156C72 12.7509 68.5304 9.28125 64.2656 9.28125ZM11.9531 69.1875C6.91298 69.1875 2.8125 65.087 2.8125 60.0469C2.8125 56.3155 5.09625 53.0041 8.4375 51.6087V57.9375C8.4375 61.0391 10.9609 63.5625 14.0625 63.5611H20.3912C18.9956 66.9039 15.6843 69.1875 11.9531 69.1875ZM21.0641 60.75H14.0625C12.5117 60.75 11.25 59.4883 11.25 57.9375V50.9359C11.4839 50.9181 11.7184 50.9062 11.9531 50.9062C16.9933 50.9062 21.0938 55.0067 21.0938 60.0469C21.0938 60.2816 21.0819 60.5161 21.0641 60.75ZM21.0938 52.3561C18.8993 49.7521 15.617 48.0938 11.9531 48.0938C8.36058 48.0938 5.05983 49.6848 2.8125 52.3606V11.9531C2.8125 6.91298 6.91298 2.8125 11.9531 2.8125C16.9933 2.8125 21.0938 6.91298 21.0938 11.9531V52.3561ZM69.1875 58.3037C67.8492 57.197 66.1338 56.5312 64.2656 56.5312C62.3974 56.5312 60.6821 57.1968 59.3438 58.3037V17.0156C59.3438 14.3017 61.5517 12.0938 64.2656 12.0938C66.9795 12.0938 69.1875 14.3017 69.1875 17.0156V58.3037Z" fill="#E1BA84"/>
</svg>
