<svg width="12" height="12" viewBox="0 0 12 12" fill="none" xmlns="http://www.w3.org/2000/svg">
<path d="M4.5 9.75V6H7.5V10.5H6.75V6.75H5.25V10.5H1.5V5.7832L1.01367 6.26367L0.486328 5.73633L6 0.216797L11.5137 5.73633L10.9863 6.26367L10.5 5.7832V7.5H9.75V5.0332L6 1.2832L2.25 5.0332V9.75H4.5ZM10.5 9.75H12V10.5H10.5V12H9.75V10.5H8.25V9.75H9.75V8.25H10.5V9.75Z" fill="white"/>
</svg>
