<svg width="11" height="11" viewBox="0 0 11 11" fill="none" xmlns="http://www.w3.org/2000/svg">
<path d="M8.63051 6.51514C8.78806 6.51514 8.93845 6.54378 9.08168 6.60107C9.22491 6.65837 9.35381 6.7443 9.4684 6.85889L10.65 8.04053C10.761 8.15153 10.8452 8.27865 10.9025 8.42188C10.9598 8.5651 10.9902 8.71729 10.9938 8.87842C10.9938 9.03597 10.9651 9.18636 10.9079 9.32959C10.8506 9.47282 10.7646 9.60173 10.65 9.71631L10.5748 9.7915C10.3815 9.98486 10.2042 10.1567 10.0431 10.3071C9.88197 10.4575 9.71368 10.5828 9.53822 10.6831C9.36277 10.7834 9.16762 10.8621 8.95277 10.9194C8.73793 10.9767 8.48191 11.0036 8.18471 11C7.73711 11 7.27699 10.9302 6.80433 10.7905C6.33168 10.6509 5.8626 10.4575 5.39711 10.2104C4.93161 9.96338 4.47328 9.66976 4.02211 9.32959C3.57094 8.98942 3.14662 8.61882 2.74916 8.21777C2.3517 7.81673 1.98288 7.39062 1.64271 6.93945C1.30254 6.48828 1.0125 6.02995 0.772595 5.56445C0.532686 5.09896 0.342908 4.63167 0.203259 4.1626C0.0636109 3.69352 -0.00442301 3.24235 -0.000842285 2.80908C-0.000842285 2.51188 0.0242228 2.25765 0.074353 2.04639C0.124483 1.83512 0.201469 1.64176 0.30531 1.46631C0.409151 1.29085 0.534477 1.12435 0.681287 0.966797C0.828097 0.809245 0.999972 0.631999 1.19691 0.435059L1.28285 0.349121C1.39385 0.238118 1.52097 0.152181 1.6642 0.0913086C1.80743 0.0304362 1.95961 0 2.12074 0C2.27829 0 2.42868 0.0304362 2.57191 0.0913086C2.71514 0.152181 2.84405 0.238118 2.95863 0.349121L4.14027 1.53076C4.25127 1.64176 4.33542 1.76888 4.39271 1.91211C4.45 2.05534 4.48044 2.20752 4.48402 2.36865C4.48402 2.5262 4.45717 2.66585 4.40346 2.7876C4.34974 2.90934 4.2835 3.02214 4.20472 3.12598C4.12595 3.22982 4.04001 3.32113 3.94691 3.3999C3.85381 3.47868 3.76609 3.55924 3.68373 3.6416C3.60137 3.72396 3.53513 3.80273 3.485 3.87793C3.43487 3.95312 3.40801 4.04085 3.40443 4.14111C3.40443 4.27718 3.45277 4.39355 3.54945 4.49023L6.50892 7.44971C6.6056 7.54639 6.72198 7.59473 6.85805 7.59473C6.95114 7.59473 7.03708 7.56787 7.11586 7.51416C7.19463 7.46045 7.2752 7.39421 7.35756 7.31543C7.43991 7.23665 7.52048 7.15072 7.59926 7.05762C7.67803 6.96452 7.76934 6.87679 7.87318 6.79443C7.97702 6.71208 8.08803 6.64583 8.20619 6.5957C8.32435 6.54557 8.46579 6.51872 8.63051 6.51514ZM8.18471 10.3125C8.44252 10.3125 8.65736 10.2892 8.82924 10.2427C9.00111 10.1961 9.15866 10.1263 9.30189 10.0332C9.44512 9.9401 9.58119 9.82552 9.7101 9.68945C9.839 9.55339 9.99118 9.39941 10.1666 9.22754C10.2633 9.13086 10.3117 9.01449 10.3117 8.87842C10.3117 8.81396 10.2866 8.73877 10.2365 8.65283C10.1863 8.56689 10.1183 8.4738 10.0324 8.37354C9.94642 8.27327 9.85512 8.1748 9.75844 8.07812C9.66176 7.98145 9.5615 7.88477 9.45765 7.78809C9.35381 7.69141 9.2625 7.60726 9.18373 7.53564C9.10495 7.46403 9.03871 7.40137 8.985 7.34766C8.88832 7.25098 8.77015 7.20264 8.63051 7.20264C8.53741 7.20264 8.45147 7.22949 8.37269 7.2832C8.29392 7.33691 8.21514 7.40316 8.13637 7.48193C8.05759 7.56071 7.97702 7.64665 7.89467 7.73975C7.81231 7.83285 7.71921 7.92057 7.61537 8.00293C7.51153 8.08529 7.40053 8.15153 7.28236 8.20166C7.1642 8.25179 7.02276 8.27865 6.85805 8.28223C6.70049 8.28223 6.5501 8.25358 6.40687 8.19629C6.26364 8.139 6.13474 8.05306 6.02015 7.93848L3.06068 4.979C2.94968 4.868 2.86553 4.74089 2.80824 4.59766C2.75095 4.45443 2.72051 4.30225 2.71693 4.14111C2.71693 3.98356 2.74379 3.84391 2.7975 3.72217C2.85121 3.60042 2.91745 3.48763 2.99623 3.38379C3.075 3.27995 3.16094 3.18864 3.25404 3.10986C3.34714 3.03109 3.43487 2.94873 3.51722 2.86279C3.59958 2.77686 3.66582 2.69808 3.71596 2.62646C3.76609 2.55485 3.79294 2.46891 3.79652 2.36865C3.79652 2.229 3.74818 2.11084 3.6515 2.01416C3.60495 1.96761 3.54408 1.90316 3.46888 1.8208C3.39369 1.73844 3.30954 1.64714 3.21644 1.54688C3.12334 1.44661 3.02666 1.34635 2.9264 1.24609C2.82614 1.14583 2.72588 1.05273 2.62562 0.966797C2.52536 0.880859 2.43405 0.814616 2.3517 0.768066C2.26934 0.721517 2.19235 0.694661 2.12074 0.6875C1.98467 0.6875 1.8683 0.73584 1.77162 0.83252L1.31508 1.28906C1.18259 1.42155 1.06801 1.55762 0.971326 1.69727C0.874646 1.83691 0.803031 1.99268 0.756482 2.16455C0.709933 2.33643 0.684867 2.55127 0.681287 2.80908C0.681287 3.21012 0.74574 3.6237 0.874646 4.0498C1.00355 4.47591 1.18438 4.90202 1.41713 5.32812C1.64987 5.75423 1.9238 6.17318 2.2389 6.58496C2.55401 6.99674 2.89776 7.38883 3.27015 7.76123C3.64255 8.13363 4.03464 8.4738 4.44642 8.78174C4.85821 9.08968 5.27715 9.35824 5.70326 9.5874C6.12937 9.81657 6.55189 9.99382 6.97084 10.1191C7.38978 10.2445 7.79441 10.3089 8.18471 10.3125Z" fill="white"/>
</svg>
