<svg width="60" height="60" viewBox="0 0 60 60" fill="none" xmlns="http://www.w3.org/2000/svg">
<g clip-path="url(#clip0)">
<path d="M59.8461 29.4671C53.5964 19.4967 42.7635 13.3247 31 13.032V5H29V13.032C17.2364 13.3247 6.40349 19.4967 0.153844 29.4671C-0.0512815 29.7929 -0.0512815 30.2074 0.153844 30.5331C6.40349 40.5035 17.2364 46.6756 29 46.9682V55.0002H31V46.9682C42.7635 46.6756 53.5964 40.5035 59.8461 30.5331C60.0513 30.2074 60.0513 29.7929 59.8461 29.4671ZM2.18885 30.0001C6.27149 23.7575 12.343 19.0768 19.4189 16.7171C15.6473 19.7206 13.3318 24.1868 13.0509 29.0001H4.99986V31.0001H13.0509C13.3318 35.8134 15.6473 40.2797 19.4189 43.2832C12.343 40.9234 6.27149 36.2428 2.18885 30.0001ZM29 39.0001V44.9492C21.5168 44.4409 15.5592 38.4833 15.0509 31.0001H20.9999V29.0001H15.0509C15.5592 21.5169 21.5168 15.5593 29 15.051V21.0001H31V15.051C38.4831 15.5593 44.4408 21.5168 44.949 29.0001H39V31.0001H44.949C44.4408 38.4833 38.4831 44.4409 31 44.9492V39.0001H29ZM57.8111 30.0001C53.7284 36.2428 47.6569 40.9234 40.581 43.2832C44.3526 40.2797 46.6682 35.8134 46.949 31.0001H55.0001V29.0001H46.949C46.6682 24.1868 44.3526 19.7204 40.581 16.7171C47.657 19.0769 53.7284 23.7575 57.8111 30.0001Z" fill="white"/>
<path d="M30 23C26.134 23 23 26.134 23 30C23.0044 33.8642 26.1359 36.9957 30 37.0001C33.866 37.0001 37.0001 33.8661 37.0001 30C37.0001 26.134 33.866 23 30 23ZM30 35.0001C27.2386 35.0001 25 32.7614 25 30C25.0033 27.24 27.24 25.0033 30 25C32.7614 25 35 27.2386 35 30C35 32.7614 32.7615 35.0001 30 35.0001Z" fill="white"/>
<path d="M6 5C5.44775 5 5 5.44775 5 6V14H7.00001V7.00001H14V5H6Z" fill="white"/>
<path d="M54 5H46V7.00001H53V14H55V6C55 5.44775 54.5523 5 54 5Z" fill="white"/>
<path d="M53 46V53H46V55H54C54.5523 55 55 54.5523 55 54V46H53Z" fill="white"/>
<path d="M7.00001 53V46H5V54C5 54.5523 5.44775 55 6 55H14V53H7.00001Z" fill="white"/>
</g>
<defs>
<clipPath id="clip0">
<rect width="60" height="60" fill="white"/>
</clipPath>
</defs>
</svg>
